Exploring Active Travel Open Data
…
038 Bruntsfield Pl (Southbound)

On Road - Non SfP

052 A8 Wester Coates

Off Road - Non SfP

015 Middle Meadow Walk

Manually construct a tribble which holds the stations of interest, with a SpF flag.

df_od %>% count(location,siteID)

## # A tibble: 59 x 3
##    location                               siteID          n
##    <chr>                                  <chr>       <int>
##  1 A8 Corstorphine Road                   EDH0029     23880
##  2 A8 Wester Coates                       EDH0052     23880
##  3 A90 Deans Bridge                       EDH0035     23880
##  4 Blacket Avenue                         EDH0051     23880
##  5 Blackhall (Dial-Up CA)                 EDH55500005 23880
##  6 Bruntsfield Place Northbound           EDH0038     23880
##  7 Bruntsfield Place Southbound           EDH0039     23880
##  8 Carrick Knowe Golf Course (Dial-Up CA) EDH55500013 23880
##  9 Carrington Road Eastbound              EDH0049     23880
## 10 Carrington Road Westbound              EDH0050     23880
## #  with 49 more rows
…
Weekday totals

df_f %>% group_by(siteID, day) %>% 
  summarise(count = sum(count))

## `summarise()` has grouped output by 'siteID'. You can override using the `.groups` argument.

## # A tibble: 42 x 3
## # Groups:   siteID [6]
##    siteID    day count
##    <chr>   <dbl> <dbl>
##  1 EDH0031     1 34757
##  2 EDH0031     2 48693
##  3 EDH0031     3 51864
##  4 EDH0031     4 53378
##  5 EDH0031     5 53750
##  6 EDH0031     6 52710
##  7 EDH0031     7 41056
##  8 EDH0035     1 21306
##  9 EDH0035     2 34197
## 10 EDH0035     3 37590
## #  with 32 more rows
